…
``` r
library(taxalight)
tl_create("itis")
#> 
```

Now we can look up species by names, IDs, or a mix. Even vernacular
names can be recognized as key. Note that only exact matches are
supported though! ITIS (`itis`) is the default provider, but GBIF, COL,
OTT, and NCBI are also available.

``` r
tl("Homo sapiens", provider = "itis")
#> # A tibble: 30 x 14
#>    taxonID   scientificName  acceptedNameUsag… taxonomicStatus taxonRank kingdom
#>    <chr>     <chr>           <chr>             <chr>           <chr>     <chr>  
#>  1 ITIS:944… Homo aethiopic… ITIS:180092       synonym         species   Animal…
#>  2 ITIS:944… Homo americanus ITIS:180092       synonym         species   Animal…
#>  3 ITIS:944… Homo arabicus   ITIS:180092       synonym         species   Animal…
#>  4 ITIS:944… Homo australas… ITIS:180092       synonym         species   Animal…
#>  5 ITIS:944… Homo cafer      ITIS:180092       synonym         species   Animal…
#>  6 ITIS:944… Homo capensis   ITIS:180092       synonym         species   Animal…
#>  7 ITIS:944… Homo columbicus ITIS:180092       synonym         species   Animal…
#>  8 ITIS:944… Homo drennani   ITIS:180092       synonym         species   Animal…
#>  9 ITIS:944… Homo grimaldii  ITIS:180092       synonym         species   Animal…
#> 10 ITIS:944… Homo hottentot… ITIS:180092       synonym         species   Animal…
#> # … with 20 more rows, and 8 more variables: phylum <chr>, class <chr>,
#> #   order <chr>, family <chr>, genus <chr>, specificEpithet <chr>,
#> #   infraspecificEpithet <lgl>, vernacularName <chr>
```
…
